{
    "email_sender": "smtps://noreply@quanode.com",
    "email_password": "quanode123",
    "email_server": "smtp.zoho.com",
    "from":"Baset <noreply@quanode.com>",
    "sending_number":201121966662,
    "apiKey":"cfc22ab8",
    "apiSecret":"befb58f6ce478ffa",
    "fbappid":"482196402176908",
    "fbappsecret":"7808c052988176e25d006dc3696a02d5",
    "server_protocol":"http",
    "server_host":"localhost",
    "server_port":"8383",
    "frontend_protocol":"http",
    "frontend_host":"localhost",
    "frontend_port":"4200"

}
